,Timestamp,,,Are you a college graduate?,,,What is your gender?,,,What is/was your major? (Choose the one that best applies),,,Your minor? (Choose the one that best applies),,,When you hear the words 'computer science' how do you feel? Check all that apply:,,,What kinds of careers do you believe come from having computer science skills?,,,"When you use computers, what do you use them for? Do you feel as though you have any diverse computing knowledge/uses that not everyone may have? (i.e. Photoshop, blogging, web design, etc.) ",,,Which phrases apply to Linux? Check all that apply:,,,How comfortable are you with programing?,,,What are your opinions/thoughts about the computer science department at Allegheny College?,,,Describe your experience with computer science. Have you ever taken a class?,,,How do the words 'artificial intelligence' make you feel? Check all that apply: ,
<time>,2016/10/26 2:57:35 PM EST,</time>,<graduate>,No,</graduate>,<gender>,Male,</gender>,<major>,Computer Science,</major>,<minor>,Economics,</minor>,<feels>,Happy;Good;Great;Excited;Intelligent;Angry;Scared;Hopeful;Hopeless;Intrigued;Frustrated;Eager,</feels>,<careers>,"Programming, IT, project management, etc.",</careers>,<use>,"programming, games, lookingup shit i dont know, interwebs, stalking mikadilla",</use>,<linux>,GNU;Opensource;Intuitive;Stress-free;Ubuntu;Red Hat;Debian;Apt-get;ls -la;mkdir / cd;chmod;Mocha,</linux>,<comfort>,4,</comfort>,<opinions>,"It rocks, give them more money for cool things though.  Seriously, why does the art department have a 3d printer, but we don't?  Why does the physics department have a Vive, but we don't?  ",</opinions>,<experience>,"I have taken lots of classes, theyre pretty fun.  All the professors seem pretty great.",</experience>,<ai>,Excited;Enthusiastic;Happy;Intrigued;Hopeful,</ai>
<time>,2016/10/26 3:01:08 PM EST,</time>,<graduate>,No,</graduate>,<gender>,Female,</gender>,<major>,Computer Science,</major>,<minor>,Economics,</minor>,<feels>,Happy;Good;Great;Excited;Intelligent;Angry;Sad;Scared;Hopeful;Hopeless;Intrigued;Frustrated;Wonderful;Terrible;Unintelligent;Eager,</feels>,<careers>,Literally every career,</careers>,<use>,I use them for homework,</use>,<linux>,Ubuntu,</linux>,<comfort>,2,</comfort>,<opinions>,Why doesn't the college treat us better/love us more?:(,</opinions>,<experience>,"Most frustrating, yet addictive, subject ever - yes I've taken cs classes",</experience>,<ai>,Excited;Nervous;Scared;Enthusiastic;Happy;Sad;Intrigued;Hopeful,</ai>
<time>,2016/11/02 9:10:14 AM EST,</time>,<graduate>,No,</graduate>,<gender>,Female,</gender>,<major>,Communication Arts,</major>,<minor>,Journalism,</minor>,<feels>,Intelligent;Scared;Frustrated,</feels>,<careers>,"programming, tech development, etc.",</careers>,<use>,"InDesign, Photoshop, Schoolwork, email, social media",</use>,<linux>,Windows 10,</linux>,<comfort>,1,</comfort>,<opinions>,N/A,</opinions>,<experience>,Nope,</experience>,<ai>,Indifferent,</ai>
<time>,2016/11/02 9:12:00 AM EST,</time>,<graduate>,Yes,</graduate>,<gender>,Female,</gender>,<major>,Political Science,</major>,<minor>,Communication Arts,</minor>,<feels>,Unintelligent,</feels>,<careers>,Literally anything you want!,</careers>,<use>,"internet, writing papers, social media",</use>,<linux>,Opensource,</linux>,<comfort>,1,</comfort>,<opinions>,I've only heard good things,</opinions>,<experience>,never,</experience>,<ai>,Intrigued,</ai>
<time>,2016/11/02 9:16:42 AM EST,</time>,<graduate>,No,</graduate>,<gender>,Female,</gender>,<major>,Biology,</major>,<minor>,Psychology,</minor>,<feels>,Intelligent;Indifferent,</feels>,<careers>,Technology and innovation,</careers>,<use>,"Used for assignments, no diverse computing knowledge",</use>,<linux>,no clue,</linux>,<comfort>,1,</comfort>,<opinions>,They are quiet and keep to themselves,</opinions>,<experience>,No,</experience>,<ai>,Intrigued,</ai>
<time>,2016/11/02 9:34:24 AM EST,</time>,<graduate>,No,</graduate>,<gender>,Female,</gender>,<major>,Environmental Science,</major>,<minor>,Dance & Movement studies,</minor>,<feels>,Frustrated;Unintelligent,</feels>,<careers>,"Statistics, business, science and research ",</careers>,<use>,I can cut music and that's about it ,</use>,<linux>,Opensource,</linux>,<comfort>,1,</comfort>,<opinions>,I've never taken a class so I don't know,</opinions>,<experience>,I have no experience,</experience>,<ai>,Nervous,</ai>
<time>,2016/11/02 9:43:51 AM EST,</time>,<graduate>,Yes,</graduate>,<gender>,Male,</gender>,<major>,English,</major>,<minor>,History,</minor>,<feels>,Good;Intrigued,</feels>,<careers>,"Combined with a liberal arts degree, those skills open the door to a variety of opportunities!",</careers>,<use>,"Getting information, purchasing goods and services. I do not have diverse computing skills.",</use>,<linux>,Have no idea,</linux>,<comfort>,1,</comfort>,<opinions>,Not able to assess. Am sure it's a valuable tool for students.,</opinions>,<experience>,Am interested to know more.,</experience>,<ai>,Intrigued,</ai>
<time>,2016/11/02 9:54:07 AM EST,</time>,<graduate>,Yes,</graduate>,<gender>,Female,</gender>,<major>,Other/Not Listed,</major>,<minor>,No minor,</minor>,<feels>,Intrigued,</feels>,<careers>,Coding and creating software and websites etc.,</careers>,<use>,yes I'm pretty acute at this point.,</use>,<linux>,Opensource;Intuitive,</linux>,<comfort>,1,</comfort>,<opinions>,Great career ahead.,</opinions>,<experience>,no,</experience>,<ai>,Intrigued,</ai>
<time>,2016/11/02 10:08:46 AM EST,</time>,<graduate>,No,</graduate>,<gender>,Female,</gender>,<major>,Communication Arts,</major>,<minor>,Community & Justice Studies,</minor>,<feels>,Intelligent;Intrigued,</feels>,<careers>,Technology development ,</careers>,<use>,Efficient in the adobe suite ,</use>,<linux>, I don't know ,</linux>,<comfort>,1,</comfort>,<opinions>,Good be further developed ,</opinions>,<experience>,"No, but family members have ",</experience>,<ai>,Nervous;Intrigued,</ai>
<time>,2016/11/02 10:09:59 AM EST,</time>,<graduate>,No,</graduate>,<gender>,Female,</gender>,<major>,Biology,</major>,<minor>,German,</minor>,<feels>,Intelligent;Indifferent,</feels>,<careers>,"Software engineer, hardware engineer, computer systems analyst, programmer",</careers>,<use>,"I use them for education, communication, and entertainment.  I have better-than-average word processing skills.",</use>,<linux>,Operating system,</linux>,<comfort>,1,</comfort>,<opinions>,It seems to me that students learn a lot but aren't prepared for specific careers.,</opinions>,<experience>,I've only taken computer science in middle school and high school.,</experience>,<ai>,Nervous;Indifferent;Intrigued,</ai>
<time>,2016/11/02 10:28:54 AM EST,</time>,<graduate>,Yes,</graduate>,<gender>,Male,</gender>,<major>,Computer Science,</major>,<minor>,Economics,</minor>,<feels>,Happy;Great;Excited;Hopeful;Wonderful;Eager,</feels>,<careers>,"Going forward -- nearly all. I see a distinct disadvantage in my work today for anyone who does not have technical and analytical skills. This includes: Marketing, Finance, Engineering, Social Media, Film/Broadcasting, etc...",</careers>,<use>,"I use them everyday for communication, analysis, global connection, sales, collaboration",</use>,<linux>,GNU;Opensource;Ubuntu;Red Hat;Apt-get;mkdir / cd;Lion,</linux>,<comfort>,3,</comfort>,<opinions>,"Glad to see one there, but don't have a strong knowledge around it!",</opinions>,<experience>,Majored in it.,</experience>,<ai>,Excited;Enthusiastic;Intrigued;Hopeful,</ai>
<time>,2016/11/02 10:50:35 AM EST,</time>,<graduate>,No,</graduate>,<gender>,Female,</gender>,<major>,Other/Not Listed,</major>,<minor>,English,</minor>,<feels>,Intelligent,</feels>,<careers>,Almost every occupation,</careers>,<use>,"Msgs, texts, writing, information, photos, -I mostly use my iPad and I phone these days",</use>,<linux>,Don't know much about Linus except that someone in my family uses it.,</linux>,<comfort>,3,</comfort>,<opinions>,"From my vantage point , it is very good training for entering almost any field.",</opinions>,<experience>,"Yes, and it was difficult at first, because my ancient brain does not think in the same way as someone younger, who never has known life without computers.",</experience>,<ai>,Intrigued,</ai>
<time>,2016/11/02 11:28:37 AM EST,</time>,<graduate>,No,</graduate>,<gender>,Female,</gender>,<major>,Community & Justice Studies,</major>,<minor>,Political Science,</minor>,<feels>,Indifferent;Hopeless;Unintelligent,</feels>,<careers>,Tech Design,</careers>,<use>,"Email, papers, presentations, music, social media",</use>,<linux>,Stress-free,</linux>,<comfort>,1,</comfort>,<opinions>,I don't know much about it,</opinions>,<experience>,Never taken a class,</experience>,<ai>,Enthusiastic;Intrigued,</ai>
<time>,2016/11/02 11:29:21 AM EST,</time>,<graduate>,No,</graduate>,<gender>,Female,</gender>,<major>,Global Health Studies,</major>,<minor>,Biology,</minor>,<feels>,Hopeful,</feels>,<careers>,Microsoft/google ,</careers>,<use>,No diverse use. Mostly the internet and Microsoft word ,</use>,<linux>,No idea ,</linux>,<comfort>,1,</comfort>,<opinions>,Don't know anything about it ,</opinions>,<experience>,Nope ,</experience>,<ai>,Scared,</ai>
<time>,2016/11/02 11:41:48 AM EST,</time>,<graduate>,No,</graduate>,<gender>,Female,</gender>,<major>,Biology,</major>,<minor>,Psychology,</minor>,<feels>,Indifferent,</feels>,<careers>,Geek squad,</careers>,<use>,"Email, social networking, research ",</use>,<linux>,Yosemite,</linux>,<comfort>,1,</comfort>,<opinions>,Intimidating ,</opinions>,<experience>,Helpful,</experience>,<ai>,Sad,</ai>
<time>,2016/11/02 11:51:28 AM EST,</time>,<graduate>,No,</graduate>,<gender>,Female,</gender>,<major>,Arabic,</major>,<minor>,Art,</minor>,<feels>,Great,</feels>,<careers>,A lot ,</careers>,<use>,"Photoshop, webdesign, yes ",</use>,<linux>,Yosemite,</linux>,<comfort>,3,</comfort>,<opinions>,I don't know much about it ,</opinions>,<experience>,No,</experience>,<ai>,Nervous,</ai>
<time>,2016/11/02 12:38:28 PM EST,</time>,<graduate>,No,</graduate>,<gender>,Male,</gender>,<major>,Computer Science,</major>,<minor>,French,</minor>,<feels>,Happy;Good;Great;Excited;Intelligent;Hopeful;Intrigued;Wonderful;Eager,</feels>,<careers>,Software Development and Data-mining.,</careers>,<use>,"Use them to code, play games, and go on social media websites. ",</use>,<linux>,GNU;Opensource;Intuitive;Stress-free;Ubuntu;Apt-get;mkdir / cd;chmod;ls -la,</linux>,<comfort>,4,</comfort>,<opinions>,It is very good. ,</opinions>,<experience>,I have taken a class and I enjoy them all.,</experience>,<ai>,Excited;Enthusiastic;Happy;Intrigued,</ai>
<time>,2016/11/02 12:39:33 PM EST,</time>,<graduate>,No,</graduate>,<gender>,Male,</gender>,<major>,Computer Science,</major>,<minor>,Economics,</minor>,<feels>,Happy;Great;Excited;Intelligent;Intrigued;Frustrated;Wonderful,</feels>,<careers>,"Software Engineer, Data Scientist, Web Developer, Front-end Developer, Back-end Developer, Professor, Teacher, Husband",</careers>,<use>,"CS homework (programming, latex, etc), Video Games, photo editing... I would say I have diverse computing knowledge in that I can do a little of pretty much anything.  There are definitely people who are better at these things than me, for sure.",</use>,<linux>,Opensource;Ubuntu;Debian;Apt-get;mkdir / cd;chmod;ls -la,</linux>,<comfort>,4,</comfort>,<opinions>,"Fun, exciting, laid-back, work-hard, cool projects",</opinions>,<experience>,I fell in love with computer science when I was in high school and took Java and C++ programming classes.  I knew from then that was the career path I wanted to take.,</experience>,<ai>,Excited;Scared;Enthusiastic;Intrigued;Hopeful,</ai>
<time>,2016/11/02 3:04:51 PM EST,</time>,<graduate>,No,</graduate>,<gender>,Female,</gender>,<major>,Environmental Science,</major>,<minor>,Political Science,</minor>,<feels>,Intelligent;Angry;Sad;Scared;Frustrated;Terrible;Eager,</feels>,<careers>,"Data Anaylis, Computer Jobs, Coding, IT, sad office jobs",</careers>,<use>,"iMovie, Photoshop, blogging, ",</use>,<linux>,Never heard of it,</linux>,<comfort>,1,</comfort>,<opinions>,"Stuffy, nerdy, math intensive, male dominated, not welcoming to women or non math majors",</opinions>,<experience>,No. Heard it's only good if you take it with a certain teacher. ,</experience>,<ai>,Excited;Nervous;Intrigued,</ai>
<time>,2016/11/02 4:02:05 PM EST,</time>,<graduate>,No,</graduate>,<gender>,Female,</gender>,<major>,Communication Arts,</major>,<minor>,Psychology,</minor>,<feels>,Good;Indifferent;Scared;Intrigued,</feels>,<careers>,"Almost anything with how popular and important technology is to us today. Government jobs, security, any company or organization. ",</careers>,<use>,Mostly doing homework and watching Netflix/Hulu. I don't have a diverse knowledge. In high school I Photoshop and Garage Band in a few classes but I probably forget how to use them now. ,</use>,<linux>,I don't know that any of this is. ,</linux>,<comfort>,1,</comfort>,<opinions>,I'm thinking about taking a computer science class for my lab requirement ,</opinions>,<experience>,No ,</experience>,<ai>,Excited;Hopeful,</ai>
<time>,2016/11/03 7:00:55 PM EST,</time>,<graduate>,No,</graduate>,<gender>,Female,</gender>,<major>,Neuroscience,</major>,<minor>,No minor,</minor>,<feels>,Indifferent;Unintelligent,</feels>,<careers>,Buisness type,</careers>,<use>,"For assignments and lists and watching videos, I know how to blog and photoshop as well.",</use>,<linux>,Opensource,</linux>,<comfort>,1,</comfort>,<opinions>,I have really no opinions ,</opinions>,<experience>,No I have never taken a class here,</experience>,<ai>,Nervous;Enthusiastic,</ai>
<time>,2016/11/04 9:15:29 AM EST,</time>,<graduate>,No,</graduate>,<gender>,Female,</gender>,<major>,Computer Science,</major>,<minor>,Psychology,</minor>,<feels>,Happy;Good;Great;Excited;Intelligent;Wonderful;Eager,</feels>,<careers>,"software engineering careers, research careers",</careers>,<use>,"I do java, so I can do development in that language and several others to a lesser extent.  I also use computers for web browsing for social media, online shopping, etc. ",</use>,<linux>,Ubuntu;chmod;ls -la,</linux>,<comfort>,5,</comfort>,<opinions>,"I love the CS department, there are lots of smart funny people!",</opinions>,<experience>,"I am a major, so my experience has been fantastic generally! ",</experience>,<ai>,Excited;Enthusiastic;Happy;Intrigued,</ai>
<time>,2016/11/05 8:47:34 AM EST,</time>,<graduate>,Yes,</graduate>,<gender>,Female,</gender>,<major>,Geology,</major>,<minor>,Music,</minor>,<feels>,Intrigued,</feels>,<careers>,"Engineer, software developer, so many I can't list them all!",</careers>,<use>,"Organization, finances (bill payment) shopping lists",</use>,<linux>,I don't know,</linux>,<comfort>,2,</comfort>,<opinions>,I have no basis,</opinions>,<experience>,"Yes, 2 classes in the 80s.  One was programming, the other was application to music.",</experience>,<ai>,Nervous;Hopeful,</ai>
<time>,2016/11/07 7:25:19 PM EST,</time>,<graduate>,No,</graduate>,<gender>,Female,</gender>,<major>,Biology,</major>,<minor>,Spanish,</minor>,<feels>,Hopeful;Intrigued,</feels>,<careers>,"web developer, computer programmer, software developer",</careers>,<use>,"social media, research/reading, homework (i.e. microsoft office), blogging",</use>,<linux>,Opensource,</linux>,<comfort>,2,</comfort>,<opinions>,"I have not taken a computer science class here, but I hear good things about it!",</opinions>,<experience>,I have taken intro to programming C++ during my senior year of high school,</experience>,<ai>,Nervous;Indifferent,</ai>
